{
    "id": "fr_2020",
    "src": "https://www.google.com/maps/d/u/0/viewer?mid=1KlTxeXvul_y_lfo0JuTdnuksqA1LW6JS",
    "data": [
        {
            "who": {
                "id": 3,
                "name": "Laetitia",
                "age": 31
            },
            "when": "2020-01-01",
            "where": {
                "country": "France",
                "locality": "Toulon",
                "department": "Var",
                "lng": 5.9304919,
                "lat": 43.1257311
            },
            "how": {
                "src": "https://www.facebook.com/feminicide/posts/2994731777204496",
                "excerpt": "Retrouvée en bas d'une falaise",
                "lines": [
                    "Mercredi 1er janvier à Toulon (Var), Laetitia Hemery (31 ans) a disparu subitement après avoir passé la soirée avec son ex-compagnon dans un restaurant. Parmi les dernières preuves de vie, un appel à son fils pour lui souhaiter la bonne année et son départ vers 3h du restaurant avec son compagnon selon des témoins. Une dispute aurait ensuite eu lieu dans la voiture et depuis Laetitia reste introuvable. Son portable a été trouvé dans le véhicule de son ex-compagnon.",
                    "Bien connu de la justice, notamment pour des faits de violences conjugales, ce dernier a été mis en examen et écroué pour homicide volontaire sur concubin ce dimanche 5 janvier. Les enquêteurs ont suffisamment d'éléments à charge malgré l'absence du corps de Laetitia 😢",
                    "Jeudi 23 janvier, l'ex compagnon est passé aux aveux devant le juge d'instruction et indiqué l'endroit où trouver le corps de Laetitia. Sa dépouille a été retrouvée en bas d'une falaise.",
                    "Elle était mère de 4 enfants."
                ]
            },
            "links": [
                "https://www.ouest-france.fr/societe/faits-divers/toulon-un-homme-mis-en-examen-pour-le-meurtre-de-sa-concubine-6677946"
            ]
        },
        {
            "who": {
                "id": 1,
                "name": "Raymonde",
                "age": 84
            },
            "when": "2020-01-04",
            "where": {
                "country": "France",
                "locality": "Ars-sur-Moselle",
                "department": "Moselle",
                "lng": 6.0763114,
                "lat": 49.0769676
            },
            "how": {
                "src": "https://www.facebook.com/feminicide/posts/2992218590789148",
                "excerpt": "Retrouvée sans vie à son domicile",
                "lines": [
                    "Samedi 4 janvier à Ars-sur-Moselle (Moselle), le corps sans vie de Raymonde a été retrouvée, elle a été tuée par son mari Roger (84 ans) à leur domicile. Il a été hospitalisé d'office lors les secours sont intervenus😡",
                    "La femme était, selon les premiers éléments, atteinte de problèmes cardiaques et le mari dépressif MAIS nous tenons à rappeler que tuer sa femme n'est pas de l'amour ni de la compassion mais bien un féminicide.",
                    "Nous ne savons pas quand a lieu ce féminicide ni par quel moyen Raymonde a été tuée, aucune information ne filtre.",
                    "#OMERTA #justicecomplice"
                ]
            },
            "links": [
                "https://www.republicain-lorrain.fr/edition-metz-et-agglomeration/2020/01/04/drame-familial-un-octogenaire-tue-son-epouse"
            ]
        },
        {
            "who": {
                "id": 2,
                "name": "Anne-Sophie",
                "age": 49
            },
            "when": "2020-01-04",
            "where": {
                "country": "France",
                "route": "Rue Berthelot",
                "locality": "Givet",
                "department": "Ardennes",
                "lng": 4.82624,
                "lat": 50.14313
            },
            "how": {
                "src": "https://www.facebook.com/feminicide/posts/2994432260567781",
                "excerpt": "Morte \"dans un contexte conjugal\"",
                "lines": [
                    "Dans la nuit du samedi 4 au dimanche 5 janvier à Givet (Ardennes), Anne-Sophie (48 ans) a été tuée par son mari Philippe Lefort (55 ans). C'est son fils, mineur, qui a donné l'alerte vers 3 heures du matin 😱",
                    "Selon le Parquet elle est morte \"dans un contexte conjugal\".",
                    "Le compagnon est en garde à vue. En état d'ébriété, il n'a pas encore pu être interrogé. Très peu d'info pour le moment. #omerta",
                    "Elle était mère d'au moins 1 enfant."
                ]
            },
            "links": [
                "https://www.lardennais.fr/id120892/article/2020-01-05/givet-une-femme-trouve-la-mort-rue-berthelot"
            ]
        },
        {
            "who": {
                "id": 4,
                "age": 49
            },
            "when": "2020-01-05",
            "where": {
                "country": "France",
                "locality": "Bordeaux",
                "department": "Gironde",
                "lng": -0.5800364,
                "lat": 44.8412250
            },
            "how": {
                "src": "https://www.facebook.com/feminicide/posts/2999054863438854",
                "excerpt": "Décès : brûlée vive dans un incendie volontaire",
                "lines": [
                    "Dimanche 5 janvier à Bordeaux (Gironde), une femme (49 ans) a été tuée par son compagnon (46 ans) dans un incendie qu'il a provoqué. Les constatations de la police ont mis en évidence que le feu s'est très rapidement propagé, depuis des vêtements posés sur le sol de la chambre.",
                    "Egalement mort, l'homme avait déjà menacé sa compagne de les brûler.",
                    "La femme avait contacté sa mère un peu plus tôt dans la journée pour lui dire que son conjoint voulait mettre le feu à l'appartement.",
                    "La police attend les résultats de l'autopsie pour savoir si la femme était décédée avant le départ du feu."
                ]
            },
            "links": [
                "https://www.witfm.fr/news/incendie-mortel-dans-un-appartement-de-bordeaux-le-feu-serait-volontaire-18638"
            ]
        },
        {
            "who": {
                "id": 5,
                "name": "Jeanine",
                "age": 89
            },
            "when": "2020-01-06",
            "where": {
                "country": "France",
                "locality": "Le Bourg du Château",
                "department": "Indre",
                "lng": 1.4608020,
                "lat": 47.1990137
            },
            "how": {
                "src": "https://www.facebook.com/feminicide/posts/3012417325435941",
                "excerpt": "Décès : par arme à feu",
                "lines": [
                    "Lundi 6 janvier à Villentrois (Indre) Jeanine Debernard (89 ans) été tuée par son mari (86) par arme à feu, puis il s'est suicidé. C'est le livreur de repas à domicile qui a donné l'alerte.",
                    "Les pompiers ont forcé la porte et ont trouvé les corps à l'étage.",
                    "Une autopsie a été demandée par le parquet mais mes enquêteurs priviligient déjà la piste du féminicide suivi du suicide de mari."
                ]
            },
            "links": [
                "https://www.lanouvellerepublique.fr/indre/commune/villentrois-faverolles-en-berry/indre-un-octogenaire-tue-sa-femme-puis-se-suicide-a-villentrois"
            ]
        },
        {
            "who": {
                "id": 8,
                "name": "Pascaline",
                "age": 60
            },
            "when": "2020-01-24",
            "where": {
                "country": "France",
                "locality": "Billy-Montigny",
                "department": "Pas-de-Calais",
                "lng": 2.9116301,
                "lat": 50.4179484
            },
            "how": {
                "src": "https://www.facebook.com/feminicide/posts/3043114312366242",
                "excerpt": "Décès : par arme à feu",
                "lines": [
                    "Vendredi 24 janvier à Billy-Montigny (Pas-de-Calais) Pascaline (60 ans) a été tuée à coups de fusil par son ex-mari Patrick (60 ans) devant les garages de la résidence où elle avait élu domicile il y a 4 mois. Il a ensuite retourné l'arme contre lui et s'est suicidé. Un voisin a entendu des cris de femme juste avant 2 ou 3 coups de feu.",
                    "Les secours arrivés sur place n'ont rien pu faire et l'arme a été retrouvée à côté des corps.",
                    "Le parquet se refuse a tout commentaire laissant planer le doute sur la nature des faits, refusant même d'indiquer la relation entre les deux #OMERTASURLESFEMINICIDES.",
                    "Elle avait déposé plusieurs plaintes.",
                    "D'après la Voix Du Nord, une procédure ouverte en 2017 à Lens, puis transmise à la gendarmerie de Phalempin. En 2018 ensuite, toujours à Lens, une transmission avait été faite aux gendarmes de Vimy afin d’auditionner l’ancien élu. En 2019 enfin, à Lens. La première n’y est jamais revenue. La seconde y aurait été renvoyée, mais ne s’y trouve pourtant pas. La dernière pour harcèlement en 2019 a été classée SANS SUITE par le parquet de Béthune. 😡😡😡",
                    "Il avait été ajoint au Maire entre 2001 et 2008.",
                    "Elle était mère de 2 enfants."
                ]
            },
            "links": [
                "https://www.lavoixdunord.fr/701179/article/2020-01-27/billy-montigny-les-deux-victimes-etaient-des-ex-conjoints"
            ]
        },
        {
            "who": {
                "id": 6,
                "name": "Valérie",
                "age": 47
            },
            "when": "2020-01-25",
            "where": {
                "country": "France",
                "locality": "Le Boulou",
                "department": "Pyrénées-Orientales",
                "lng": 2.8337158,
                "lat": 42.5259989
            },
            "how": {
                "src": "https://www.facebook.com/feminicide/posts/3038460299498310",
                "excerpt": "Décès : coups et blessures",
                "lines": [
                    "Samedi 25 janvier à Le Boulou (Pyrénées-Orientales) Valérie (47 ans) est décédée à l'hôpital des suites de ses blessures. Jeudi 23 janvier, son conjoint (43 ans) lui a tiré une balle en pleine tête, la laissant en état de mort cérébrale. Il a ensuite appelé les secours.",
                    "Interpellé en état d'ébriété, il évoque un tir accidentel mais la justice le soupçonne d'avoir délibérément tiré dans la tête de sa compagne.",
                    "Des proches de Valérie viennent de nous informer en MP qu'elle est décédée ce matin à l'hôpital entourée de ses proches.",
                    "Le conjoint a déjà été mis en examen et écroué pour tentative de meurtre, les faits vont requalifiés en meurtre sur conjoint par le parquet de Perpignan.",
                    "Valérie était mère de 4 enfants."
                ]
            },
            "links": [
                "https://www.midilibre.fr/2020/01/24/le-boulou-une-femme-touchee-dun-coup-de-feu-en-etat-de-mort-cerebrale-son-concubin-interpelle,8684687.php"
            ]
        },
        {
            "who": {
                "id": 7,
                "age": 55
            },
            "when": "2020-01-26",
            "where": {
                "country": "France",
                "locality": "Baie-Mahault",
                "department": "Guadeloupe",
                "lng": -61.5870766,
                "lat": 16.2679458
            },
            "how": {
                "src": "https://www.facebook.com/feminicide/posts/3042811645729842",
                "excerpt": "Décès : percutée au volant de son véhicule",
                "lines": [
                    "Lundi 27 janvier à Baie-Mahault (Guadeloupe) une femme (55 ans) est décédée dans sa voiture après avoir été percutée par la voiture de son ex-compagnon qui la poursuivait. Il lui aurait également ingligé des coups de couteau, ce qui a immédiatement conduit les enquêteurs à écarter la thèse de l'accident au profit de celle d'un féminicide.",
                    "La victime avait joint les secours au volant de son véhicule pour demander de l'aide avant d'être violement percutée par son ex-compagnon.",
                    "L'homme est identifié mais il n'a pas encore été interpellé 😡"
                ]
            },
            "links": [
                "https://www.guadeloupe.franceantilles.fr/actualite/faits-divers/drame-au-rond-point-de-calvaire-il-s-agit-d-un-feminicide-567385.php"
            ]
        },
        {
            "who": {
                "id": 9,
                "name": "Mélanie",
                "age": 35
            },
            "when": "2020-01-29",
            "where": {
                "country": "France",
                "locality": "Ecquevilly",
                "department": "Yvelines",
                "lng": 1.9226814,
                "lat": 48.9510622
            },
            "how": {
                "src": "https://www.facebook.com/feminicide/posts/3046422778702062",
                "excerpt": "Décès : coups de couteau",
                "lines": [
                    "Dans la nuit de mercredi 29 janvier à Ecquevilly (Yvelines), Mélanie (35 ans) a été poignardée à mort par son ex compagnon (38 ans) vers 4h du matin.",
                    "L'homme s'est rendu au nouveau logement de sa victime, il a également attaqué son nouveau compagnon (30 ans) et sa soeur (21 ans), ils sont en urgence absolue.",
                    "Il s'est ensuite échappé en dérobant la voiture de son ex compagne. Il a été interpellé ce même jour.",
                    "Selon Le Parisien \"des liens découverts sur place pourraient faire penser que l'ex-mari se serait livré à des actes de torture sur ses victimes.\"",
                    "Il était déjà connu pour violences conjugales en 2015.",
                    "Mélanie était maman d'une fille de 9 ans qui heureusement n'était pas présente au moment des faits."
                ]
            },
            "links": [
                "https://actu17.fr/yvelines-il-poignarde-a-mort-son-ex-petite-amie-et-blesse-gravement-son-nouveau-compagnon/?fbclid=IwAR0nsz7MDSUU3sZZ_xFnd-Ur6SW-VL-bGKYAP4U2i2GvKTqjlhxxloj4NO0"
            ]
        },
        {
            "who": {
                "id": 10,
                "name": "Jacqueline",
                "age": 23
            },
            "when": "2020-01-29",
            "where": {
                "country": "France",
                "route": "260 route de Vienne",
                "locality": "Lyon",
                "department": "Rhône",
                "lng": 4.85309,
                "lat": 45.7274
            },
            "how": {
                "src": "https://www.facebook.com/feminicide/posts/3048364711841202",
                "excerpt": "Décès : par arme à feu",
                "lines": [
                    "Mercredi 29 janvier à Lyon (Rhône), Jacqueline (23 ans) a été tuée par son ex-compagnon (23 ans) puis il a retourné l'arme contre lui.",
                    "Souhaitant se séparer de son compagnon, elle s'apprêtait à quitter Lyon et avait trouvé refuge son beau-frère et sa belle-soeur.",
                    "Son est venu lui apporter des affaires et ils se sont isolés dans une pièce pour discuter, c'est là que l'homme a sorti une arme et a abattu son ex-compagne 😡",
                    "Encore un homme qui n'a pas supporté que sa femme le quitte #crimedepossession"
                ]
            },
            "links": [
                "https://www.lyonmag.com/article/105431/lyon-il-tire-sur-sa-compagne-avant-de-retourner-l-arme-contre-lui"
            ]
        },
        {
            "who": {
                "id": 11,
                "age": 88
            },
            "when": "2020-01-30",
            "where": {
                "country": "France",
                "locality": "Saint-Astier",
                "department": "Dordogne",
                "lng": 0.5283125,
                "lat": 45.1450477
            },
            "how": {
                "src": "https://www.facebook.com/feminicide/posts/3050673124943694",
                "excerpt": "Décès : par arme à feu",
                "lines": [
                    "Jeudi 30 janvier à Saint-Astier (Dordogne) une femme (88 ans) a été tuée par son mari (88 ans), par arme à feu, puis il s'est suicidé. C'est l'infirmière à domicile qui a donné l'alerte lorsqu'elle a découvert les corps. La femme était allongée dans le lit avec une balle dans la tête, lui a été retrouvé dans une autre pièce.",
                    "Une autopsie a été demandée par le parquet et une enquête est cours pour en savoir plus sur les circonstances. Par ailleurs, une lettre aurait été trouvée mais rien n'indique que Madame était consentante pour mourir abattue comme du gibier !",
                    "Non @SudOuest, ce n'est pas \"un drame de la vieillesse\" ni un geste de compassion pour sa femme malade, mais un crime machiste où un homme pense avoir droit de vie et de mort sur son épouse 😡😡"
                ]
            },
            "links": [
                "https://www.sudouest.fr/2020/01/31/un-couple-d-octogenaires-retrouve-mort-chez-lui-7134150-2247.php"
            ]
        },
        {
            "who": {
                "id": 12,
                "name": "Brigitte",
                "age": 75
            },
            "when": "2020-02-14",
            "where": {
                "country": "France",
                "locality": "Verdun",
                "department": "Meuse",
                "lng": 5.3867277,
                "lat": 49.1589278
            },
            "how": {
                "src": "https://www.facebook.com/feminicide/posts/3082958751715131",
                "excerpt": "Décès : par arme à feu",
                "lines": [
                    "Vendredi 14 février à Verdun (Meuse) Brigitte Crussière (67 ans) a été tuée par son conjoint (75 ans), par arme à feu, puis il s'est suicidé. C'est l'infirmière à domicile qui a donné l'alerte lorsqu'elle a découvert les corps dans la chambre à coucher. Les premières constatations confirment le féminicide suivi d'un suicide du conjoint.",
                    "Par ailleurs, deux lettres auraient été trouvées mais rien n'indique que Madame les a rédigées et qu'elle était consentante pour mourir abattue comme du gibier 😡",
                    "Vous tirez des conclusions hâtives \"en évoquant un geste commun\" l'Est Républicain, alors que le contenu des lettres n'a même pas été dévoilé et que dans tous les cas, ça reste un meurtre aux yeux de la loi #pressecomplice",
                    "Une enquête est en cours, une autopsie des corps sera pratiquée, à ce stade \"la thèse du drame familial est privilégiée\" selon la substitut du procureur Floriane Tappon.",
                    "Non ce n'est pas \"un drame familial\" mais un #Féminicideparcompagnonouex, un crime de possession, où un homme pense pouvoir s'octroyer un droit de vie et de mort sur sa compagne #justicecomplice"
                ]
            },
            "links": [
                "https://www.estrepublicain.fr/actualite/2020/02/14/il-tue-sa-conjointe-et-se-suicide-dans-la-chambre-a-coucher"
            ]
        },
        {
            "who": {
                "id": 13,
                "age": 80
            },
            "when": "2020-02-21",
            "where": {
                "country": "France",
                "locality": "Livron-sur-Drôme",
                "department": "Drôme",
                "lng": 4.8455070,
                "lat": 44.7726501
            },
            "how": {
                "src": "https://www.facebook.com/feminicide/posts/3097140180296988",
                "excerpt": "Décès : coups de couteau",
                "lines": [
                    "Vendredi 21 février à Livron-sur-Drôme (Drôme) une octogénaire est morte après avoir été poignardée par son mari dans leur appartement de la résidence pour séniors dans laquelle ils vivaient depuis moins de 2 mois. Il a ensuite tenté de se suicider et a été transporté a l'hôpital par les pompiers.",
                    "Les premières constatations confirment le féminicide suivi d'une tentative de suicide du mari. Selon les responsables de la résidence pour séniors, aucun des deux ne souffraient de maladie.",
                    "Une enquête est en cours, le mari devrait mis en examen quand son état de santé sera stabilisé."
                ]
            },
            "links": [
                "https://www.francebleu.fr/infos/faits-divers-justice/un-homme-tue-sa-femme-et-tente-de-se-suicider-dans-une-residence-pour-seniors-a-livron-1582280309"
            ]
        },
        {
            "who": {
                "id": 14,
                "name": "Véronique",
                "age": 50
            },
            "when": "2020-02-23",
            "where": {
                "country": "France",
                "locality": "Le Val",
                "department": "Var",
                "lng": 6.0733753,
                "lat": 43.4390685
            },
            "how": {
                "src": "https://www.facebook.com/feminicide/posts/3102099206467752",
                "excerpt": "Décès : par arme à feu",
                "lines": [
                    "Dimanche 23 février à Le Val (Var) Véronique (50 ans) a été tuée par arme à feu par son ex-compagnon (51 ans) à qui elle venait d'annoncer leur séparation 😡",
                    "L'homme, policier à la BAC de Toulon, a ensuite téléphoné à son fils de 19 ans avant de retourner l'arme contre lui. Le jeune homme s'est alors précipité au domicile de Véronique et a trouvé les 2 corps.",
                    "Encore un homme possessif qui n'a pas supporté qu'une femme le quitte #crimedepossession",
                    "Elle était mère de 2 enfants."
                ],
                "context": "a été tuée par arme à feu par son ex-compagnon"
            },
            "links": [
                "https://www.francebleu.fr/infos/faits-divers-justice/le-val-un-policier-de-la-bac-de-toulon-tue-sa-compagne-puis-se-suicide-avec-son-arme-de-service-1582468025"
            ]
        }
    ]
}